PS270 Final Project
…
#3 Data Set Up

library(tidyverse)
library(readxl)

Read Function and Glimpse into the data

laser_2025 <- read_excel("data/Laser-Report-2025_0.xlsx")
read_excel("data/Laser_Report_2026_FOIA.xlsx")

# A tibble: 763 × 9
   `Incident Date`     `Incident Time` Aircraft Altitude Airport
   <dttm>                        <dbl> <chr>    <chr>    <chr>  
 1 2026-01-01 00:00:00              14 A319     32000    ZME    
 2 2026-01-01 00:00:00              18 SB20     18000    ZMP    
 3 2026-01-01 00:00:00              50 C208     8000     GRB    
 4 2026-01-01 00:00:00             105 B39M     6000     I90    
 5 2026-01-01 00:00:00             105 A21N     UNK      I90    
 6 2026-01-01 00:00:00             111 C750     600      OPF    
 7 2026-01-01 00:00:00             145 AA1      4500     ZME    
 8 2026-01-01 00:00:00             201 B752     11000    MSY    
 9 2026-01-01 00:00:00             225 B738     UNK      SBA    
10 2026-01-01 00:00:00             232 B737     1500     PHL    
# ℹ 753 more rows
# ℹ 4 more variables: `Laser Color` <chr>, Injury <chr>, City <chr>,
#   State <chr>
…
Milestone 3

data cleaning

laser_2025 <- laser_2025 |>
  mutate( month = format(`Incident Date`, "%b")) |>
   mutate(month = factor(month, levels = c(
    "Jan","Feb","Mar","Apr","May","Jun",
    "Jul","Aug","Sep","Oct","Nov","Dec")))

laser_2025

# A tibble: 872 × 10
   `Incident Date`     `Incident Time` Aircraft Altitude Airport
   <dttm>                        <dbl> <chr>    <chr>    <chr>  
 1 2025-12-01 00:00:00               5 H25B     Unk      D21    
 2 2025-12-01 00:00:00              19 E175     Unk      LGA    
 3 2025-12-01 00:00:00             100 B738     Unk      ZJX    
 4 2025-12-01 00:00:00             101 B38M     Unk      ZJX    
 5 2025-12-01 00:00:00             110 B712     Unk      C90    
 6 2025-12-01 00:00:00             141 A320     Unk      C90    
 7 2025-12-01 00:00:00             144 E75L     Unk      C90    
 8 2025-12-01 00:00:00             147 A319     Unk      C90    
 9 2025-12-01 00:00:00             205 C25M     Unk      S46    
10 2025-12-01 00:00:00             229 P28A     Unk      DVT    
# ℹ 862 more rows
# ℹ 5 more variables: `Laser Color` <chr>, Injury <chr>, City <chr>,
#   State <chr>, month <fct>
…
pop_data <- pop_data |>
  mutate(State = sub("^\\.", "", State))

pop_data

# A tibble: 59 × 4
   State                total_pop pop_over_18 percent_0ver_18
   <chr>                    <dbl>       <dbl>           <dbl>
 1 Alabama                5193088     4075161            78.5
 2 Alaska                  737270      565570            76.7
 3 Arizona                7623818     6026503            79  
 4 Arkansas               3114791     2416023            77.6
 5 California            39355309    31180511            79.2
 6 Colorado               6012561     4792358            79.7
 7 Connecticut            3688496     2970201            80.5
 8 Delaware               1059952      849963            80.2
 9 District of Columbia    693645      569575            82.1
10 Florida               23462518    19019796            81.1
# ℹ 49 more rows

pop_data_laser <- laser_2025 |>
  left_join(pop_data, by = "State")

pop_data_laser

# A tibble: 872 × 13
   `Incident Date`     `Incident Time` Aircraft Altitude Airport
   <dttm>                        <dbl> <chr>    <chr>    <chr>  
 1 2025-12-01 00:00:00               5 H25B     Unk      D21    
 2 2025-12-01 00:00:00              19 E175     Unk      LGA    
 3 2025-12-01 00:00:00             100 B738     Unk      ZJX    
 4 2025-12-01 00:00:00             101 B38M     Unk      ZJX    
 5 2025-12-01 00:00:00             110 B712     Unk      C90    
 6 2025-12-01 00:00:00             141 A320     Unk      C90    
 7 2025-12-01 00:00:00             144 E75L     Unk      C90    
 8 2025-12-01 00:00:00             147 A319     Unk      C90    
 9 2025-12-01 00:00:00             205 C25M     Unk      S46    
10 2025-12-01 00:00:00             229 P28A     Unk      DVT    
# ℹ 862 more rows
# ℹ 8 more variables: `Laser Color` <chr>, Injury <chr>, City <chr>,
#   State <chr>, month <fct>, total_pop <dbl>, pop_over_18 <dbl>,
#   percent_0ver_18 <dbl>
…
